Assignment CFA SEM
…
1 Environment

1.1 Library

library(pacman) #package management tool. run install.packages("pacman")
p_load(tidyverse, haven, summarytools, psych, MVN, lavaan, semTools, semPlot)

1.2 Dataset

dataset exercise.sav was imported directly into R, with vector name exerciseds

exerciseds0 <- read_sav("Exercise.sav")
exerciseds <- exerciseds0 %>% mutate_if(is.labelled, ~(as_factor(.))) %>% print()

## # A tibble: 200 x 5
##       A1    A2   SP1   SP2 Exercise
##    <dbl> <dbl> <dbl> <dbl>    <dbl>
##  1     4     3     4     5        5
##  2     4     4     5     6        6
##  3     2     3     2     6        7
##  4     3     3     5     7        7
##  5     4     4     7     7        6
##  6     4     3     7     7        7
##  7     3     5     6     7        6
##  8     4     4     6     6        6
##  9     3     4     7     6        6
## 10     2     2     1     2        2
## #  with 190 more rows
…
