Assignment
…
## Installing package into '/home/puterabemi/R/x86_64-pc-linux-gnu-library/4.0'
## (as 'lib' is unspecified)

## 
## GPArotation installed

Dataset

selfds0 <- read_sav("self-efficacy.sav")
selfds <- selfds0 %>% select(-ID) #%>% mutate_if(is.labelled, ~(as_factor(.)))
selfds

## # A tibble: 150 x 9
##          S1       S2       S3       S4       S5       S6      S7      S8      S9
##    <dbl+lb> <dbl+lb> <dbl+lb> <dbl+lb> <dbl+lb> <dbl+lb> <dbl+l> <dbl+l> <dbl+l>
##  1 5 [lang 5 [lang 5 [lang 5 [lang 5 [lang 5 [lang 5 [lan 5 [lan 5 [lan
##  2 4 [sedi 5 [lang 4 [sedi 5 [lang 5 [lang 5 [lang 5 [lan 5 [lan 4 [sed
##  3 4 [sedi 5 [lang 4 [sedi 4 [sedi 5 [lang 4 [sedi 4 [sed 4 [sed 4 [sed
##  4 4 [sedi 4 [sedi 4 [sedi 3 [sede 4 [sedi 4 [sedi 1 [san 5 [lan 3 [sed
##  5 5 [lang 5 [lang 5 [lang 5 [lang 5 [lang 5 [lang 5 [lan 5 [lan 4 [sed
##  6 3 [sede 5 [lang 5 [lang 5 [lang 5 [lang 5 [lang 3 [sed 5 [lan 3 [sed
##  7 4 [sedi 5 [lang 4 [sedi 5 [lang 5 [lang 5 [lang 3 [sed 5 [lan 3 [sed
##  8 3 [sede 3 [sede 3 [sede 3 [sede 3 [sede 3 [sede 3 [sed 3 [sed 3 [sed
##  9 4 [sedi 5 [lang 4 [sedi 4 [sedi 5 [lang 5 [lang 3 [sed 5 [lan 4 [sed
## 10 5 [lang 5 [lang 5 [lang 5 [lang 5 [lang 5 [lang 5 [lan 5 [lan 5 [lan
## #  with 140 more rows
…
